…
Time series data are often shipped in “wide” format, where each row is a
unique date and different data points are stored in columns. This is a
typical organizational strategy for spreadsheets, but (1) `ggplot2` does
not plot time series data in “wide” format and (2) I’ve found it to be a
less efficient format to work with for data tasks.

The `nyt_wide` data are an example of this format. Each row is a single
date, and there are columns for the numbers of new cases and deaths as
well as their 7-day average per capita rates.

``` r
nyt_wide
```

    ## # A tibble: 1,058 × 5
    ##    date       cases cases_avg7_pc deaths deaths_avg7_pc
    ##    <date>     <dbl>         <dbl>  <dbl>          <dbl>
    ##  1 2020-01-21     1   NA               0             NA
    ##  2 2020-01-22     1   NA               0             NA
    ##  3 2020-01-23     1   NA               0             NA
    ##  4 2020-01-24     2   NA               0             NA
    ##  5 2020-01-25     3   NA               0             NA
    ##  6 2020-01-26     5   NA               0             NA
    ##  7 2020-01-27     5   NA               0             NA
    ##  8 2020-01-28     5    0.00000173      0              0
    ##  9 2020-01-29     5    0.00000173      0              0
    ## 10 2020-01-30     6    0.00000217      0              0
    ## # … with 1,048 more rows

Similarly, the `cdc_wide` data have one row per date, and columns for
each variant:

``` r
cdc_wide
```

    ## # A tibble: 39 × 8
    ##    week        BA.1  BA.2 BA.2.12 BA.2.75  BA.4  BA.5 Delta
    ##    <date>     <dbl> <dbl>   <dbl>   <dbl> <dbl> <dbl> <dbl>
    ##  1 2021-12-04   0.8   0         0       0     0     0  98.9
    ##  2 2021-12-11   7.9   0         0       0     0     0  91.8
    ##  3 2021-12-18  38     0         0       0     0     0  61.6
    ##  4 2021-12-25  73.5   0         0       0     0     0  25.8
    ##  5 2022-01-01  89     0         0       0     0     0  10.2
    ##  6 2022-01-08  95.1   0.1       0       0     0     0   4.5
    ##  7 2022-01-15  97.8   0.2       0       0     0     0   1.9
    ##  8 2022-01-22  98.6   0.4       0       0     0     0   0.8
    ##  9 2022-01-29  98.7   0.8       0       0     0     0   0.5
    ## 10 2022-02-05  98.2   1         0       0     0     0   0.7
    ## # … with 29 more rows
…
I prefer to implement `pivot_longer()` in a pipe, where columns are
removed before implementing the function:

``` r
nyt_wide %>%
  select(date, cases_avg7_pc, deaths_avg7_pc) %>%
  pivot_longer(cols = c("cases_avg7_pc", "deaths_avg7_pc"), names_to = "measure", values_to = "value")
```

    ## # A tibble: 2,116 × 3
    ##    date       measure        value
    ##    <date>     <chr>          <dbl>
    ##  1 2020-01-21 cases_avg7_pc     NA
    ##  2 2020-01-21 deaths_avg7_pc    NA
    ##  3 2020-01-22 cases_avg7_pc     NA
    ##  4 2020-01-22 deaths_avg7_pc    NA
    ##  5 2020-01-23 cases_avg7_pc     NA
    ##  6 2020-01-23 deaths_avg7_pc    NA
    ##  7 2020-01-24 cases_avg7_pc     NA
    ##  8 2020-01-24 deaths_avg7_pc    NA
    ##  9 2020-01-25 cases_avg7_pc     NA
    ## 10 2020-01-25 deaths_avg7_pc    NA
    ## # … with 2,106 more rows
…
``` r
## create names vector
names <- names(nyt_wide)[-1]

## pivot
nyt_pivot <- pivot_longer(nyt_wide, cols = all_of(names), names_to = "measure", values_to = "value")

## print
nyt_pivot
```

    ## # A tibble: 4,232 × 3
    ##    date       measure        value
    ##    <date>     <chr>          <dbl>
    ##  1 2020-01-21 cases              1
    ##  2 2020-01-21 cases_avg7_pc     NA
    ##  3 2020-01-21 deaths             0
    ##  4 2020-01-21 deaths_avg7_pc    NA
    ##  5 2020-01-22 cases              1
    ##  6 2020-01-22 cases_avg7_pc     NA
    ##  7 2020-01-22 deaths             0
    ##  8 2020-01-22 deaths_avg7_pc    NA
    ##  9 2020-01-23 cases              1
    ## 10 2020-01-23 cases_avg7_pc     NA
    ## # … with 4,222 more rows

One final point to raise is that you may want to clean up the `measure`
values afterward. For example:

``` r
mutate(nyt_pivot, measure = case_when(
  measure == "cases_avg7_pc" ~ "avg cases per capita",
  measure == "deaths_avg7_pc" ~ "avg deaths per capita",
  TRUE ~ measure
))
```

    ## # A tibble: 4,232 × 3
    ##    date       measure               value
    ##    <date>     <chr>                 <dbl>
    ##  1 2020-01-21 cases                     1
    ##  2 2020-01-21 avg cases per capita     NA
    ##  3 2020-01-21 deaths                    0
    ##  4 2020-01-21 avg deaths per capita    NA
    ##  5 2020-01-22 cases                     1
    ##  6 2020-01-22 avg cases per capita     NA
    ##  7 2020-01-22 deaths                    0
    ##  8 2020-01-22 avg deaths per capita    NA
    ##  9 2020-01-23 cases                     1
    ## 10 2020-01-23 avg cases per capita     NA
    ## # … with 4,222 more rows
…
``` r
## create names vector
names <- names(cdc_wide)[-1]

## pivot
cdc_pivot <- pivot_longer(cdc_wide, cols = all_of(names), names_to = "measure", values_to = "value")

## print
cdc_pivot
```

    ## # A tibble: 273 × 3
    ##    week       measure value
    ##    <date>     <chr>   <dbl>
    ##  1 2021-12-04 BA.1      0.8
    ##  2 2021-12-04 BA.2      0  
    ##  3 2021-12-04 BA.2.12   0  
    ##  4 2021-12-04 BA.2.75   0  
    ##  5 2021-12-04 BA.4      0  
    ##  6 2021-12-04 BA.5      0  
    ##  7 2021-12-04 Delta    98.9
    ##  8 2021-12-11 BA.1      7.9
    ##  9 2021-12-11 BA.2      0  
    ## 10 2021-12-11 BA.2.12   0  
    ## # … with 263 more rows
…
``` r
nyt_long %>%
  pivot_wider(id_cols = "date", names_from = "measure", values_from = "value")
```

    ## # A tibble: 1,058 × 5
    ##    date       cases cases_avg7_pc deaths deaths_avg7_pc
    ##    <date>     <dbl>         <dbl>  <dbl>          <dbl>
    ##  1 2020-01-21     1   NA               0             NA
    ##  2 2020-01-22     1   NA               0             NA
    ##  3 2020-01-23     1   NA               0             NA
    ##  4 2020-01-24     2   NA               0             NA
    ##  5 2020-01-25     3   NA               0             NA
    ##  6 2020-01-26     5   NA               0             NA
    ##  7 2020-01-27     5   NA               0             NA
    ##  8 2020-01-28     5    0.00000173      0              0
    ##  9 2020-01-29     5    0.00000173      0              0
    ## 10 2020-01-30     6    0.00000217      0              0
    ## # … with 1,048 more rows

One key trick is to make sure the values in `measure` are appropriate
for variable names ahead of time. They should be short, readable, and
without spaces or special characters. Use `mutate()` as needed to tidy
them up before privoting!

Now, you try - pivot the `cdc_long` data to wide. If you decide to write
your changes to an object, name it `cdc_pivot`:

``` r
cdc_long %>%
  pivot_wider(id_cols = "week", names_from = "variant", values_from = "pct")
```

    ## # A tibble: 39 × 8
    ##    week        BA.1  BA.2 BA.2.12 BA.2.75  BA.4  BA.5 Delta
    ##    <date>     <dbl> <dbl>   <dbl>   <dbl> <dbl> <dbl> <dbl>
    ##  1 2021-12-04   0.8   0         0       0     0     0  98.9
    ##  2 2021-12-11   7.9   0         0       0     0     0  91.8
    ##  3 2021-12-18  38     0         0       0     0     0  61.6
    ##  4 2021-12-25  73.5   0         0       0     0     0  25.8
    ##  5 2022-01-01  89     0         0       0     0     0  10.2
    ##  6 2022-01-08  95.1   0.1       0       0     0     0   4.5
    ##  7 2022-01-15  97.8   0.2       0       0     0     0   1.9
    ##  8 2022-01-22  98.6   0.4       0       0     0     0   0.8
    ##  9 2022-01-29  98.7   0.8       0       0     0     0   0.5
    ## 10 2022-02-05  98.2   1         0       0     0     0   0.7
    ## # … with 29 more rows
…
